{"application_response_code":"100","application_response_text":"listings returned for one unambiguous location","attribution":{"img_height":22,"img_url":"https://resources.nestimg.com/nestoria/img/pbr_v1.png","img_width":183,"link_to_img":"http://www.nestoria.com"},"created_http":"Wed, 12 Feb 2020 15:14:41 GMT","created_unix":1581520481,"link_to_url":"https://www.nestoria.co.uk/london/property/buy","listings":[{"bathroom_number":2,"bedroom_number":2,"car_spaces":"","commission":0,"construction_year":0,"datasource_name":"Findproperly","img_height":300,"img_url":"https://imgs.nestimg.com/2_bedroom_terraced_house_for_sale_in_nelson_place_n1_london_2760072581426684190.jpg","img_width":400,"keywords":"Garden, En suite, Terraced, Wood Floor, Double Bedroom, Kitchen, Patio, Cul-de-Sac, Reception","latitude":51.5312,"lister_url":"https://www.nestoria.co.uk/detail/0000002760072581426684190/title/5/1-1?serpUid=&pt=1&ot=1&l=london&did=114_default&t_sec=9&t_or=45&t_pvid=null&utm_source=api&utm_medium=external","listing_type":"buy","location_accuracy":9,"longitude":-0.100349,"price":995000,"price_currency":"£","price_formatted":"£995,000","price_high":995000,"price_low":995000,"price_type":"fixed","property_type":"house","room_number":2,"size":0,"size_type":"net","summary":"A ly presented 2 bedroom period house situated at the end of this q...","thumb_height":60,"thumb_url":"https://imgs.nestimg.com/medium/2_bedroom_terraced_house_for_sale_in_nelson_place_n1_london_2760072581426684190.jpg","thumb_width":80,"title":"Nelson Place, London N1 - Garden","updated_in_days":1,"updated_in_days_formatted":"New"},{"bathroom_number":2,"bedroom_number":3,"car_spaces":"","commission":0,"construction_year":0,"datasource_name":"Findproperly","img_height":300,"img_url":"https://imgs.nestimg.com/3_bedroom_maisonette_for_sale_in_city_road_angel_ec1v_london_6680072581426682918.jpg","img_width":400,"keywords":"Garden, En suite, Grade II, High Ceilings, Raised Ground, Double Bedroom, Kitchen, Reception, Listed","latitude":51.5312,"lister_url":"https://www.nestoria.co.uk/detail/0000006680072581426682918/title/5/1-2?serpUid=&pt=1&ot=1&l=london&did=114_default&t_sec=9&t_or=45&t_pvid=null&utm_source=api&utm_medium=external","listing_type":"buy","location_accuracy":9,"longitude":-0.104286,"price":1900000,"price_currency":"£","price_formatted":"£1,900,000","price_high":1900000,"price_low":1900000,"price_type":"fixed","property_type":"house","room_number":3,"size":0,"size_type":"net","summary":"A , 3 double bedroom, 2 bathroom grade ii listed upper maisonette s...","thumb_height":60,"thumb_url":"https://imgs.nestimg.com/medium/3_bedroom_maisonette_for_sale_in_city_road_angel_ec1v_london_6680072581426682918.jpg","thumb_width":80,"title":"City Road, Angel, London EC1V","updated_in_days":1,"updated_in_days_formatted":"New"},{"bathroom_number":0,"bedroom_number":4,"car_spaces":"","commission":0,"construction_year":0,"datasource_name":"Findproperly","img_height":300,"img_url":"https://imgs.nestimg.com/4_bedroom_terraced_house_for_sale_in_batchelor_street_n1_london_1570072581426686230.jpg","img_width":400,"keywords":"Shared Garden, En suite, Grade II, Raised Ground, Terraced, Kitchen, Patio, Reception, Listed","latitude":51.5353,"lister_url":"https://www.nestoria.co.uk/detail/0000001570072581426686230/title/5/1-3?serpUid=&pt=1&ot=1&l=london&did=114_default&t_sec=9&t_or=45&t_pvid=null&utm_source=api&utm_medium=external","listing_type":"buy","location_accuracy":9,"longitude":-0.108325,"price":1750000,"price_currency":"£","price_formatted":"£1,750,000","price_high":1750000,"price_low":1750000,"price_type":"fixed","property_type":"house","room_number":4,"size":0,"size_type":"net","summary":"A large grade ii listed four bedroom townhouse on batchelor street,...","thumb_height":60,"thumb_url":"https://imgs.nestimg.com/medium/4_bedroom_terraced_house_for_sale_in_batchelor_street_n1_london_1570072581426686230.jpg","thumb_width":80,"title":"Batchelor Street, London N1 - Garden","updated_in_days":1,"updated_in_days_formatted":"New"},{"bathroom_number":0,"bedroom_number":2,"car_spaces":"","commission":0,"construction_year":0,"datasource_name":"Findproperly","img_height":300,"img_url":"https://imgs.nestimg.com/2_bedroom_flat_for_sale_in_dalby_house_398_city_road_clerkenwell_ec1v_london_6870072581426682957.jpg","img_width":400,"keywords":"En suite, Grade II, Conversion, High Ceilings, Wood Floor, Kitchen, Parking, Listed","latitude":51.5312,"lister_url":"https://www.nestoria.co.uk/detail/0000006870072581426682957/title/5/1-4?serpUid=&pt=1&ot=1&l=london&did=114_default&t_sec=9&t_or=45&t_pvid=null&utm_source=api&utm_medium=external","listing_type":"buy","location_accuracy":9,"longitude":-0.104286,"price":899995,"price_currency":"£","price_formatted":"£899,995","price_high":899995,"price_low":899995,"price_type":"fixed","property_type":"flat","room_number":2,"size":0,"size_type":"net","summary":"An ly-presented two bedroom conversion apartment. Locationthis prop...","thumb_height":60,"thumb_url":"https://imgs.nestimg.com/medium/2_bedroom_flat_for_sale_in_dalby_house_398_city_road_clerkenwell_ec1v_london_6870072581426682957.jpg","thumb_width":80,"title":"Dalby House, 398 City Road, Clerkenwell, London EC1V","updated_in_days":1,"updated_in_days_formatted":"New"},{"bathroom_number":0,"bedroom_number":2,"car_spaces":"","commission":0,"construction_year":0,"datasource_name":"Findproperly","img_height":300,"img_url":"https://imgs.nestimg.com/2_bedroom_maisonette_for_sale_in_levyne_court_pine_street_ec1r_london_7610072581426685612.jpg","img_width":400,"keywords":"Garden, Balcony, Refurbished, Double Bedroom, Kitchen, Parking, Reception","latitude":51.5249,"lister_url":"https://www.nestoria.co.uk/detail/0000007610072581426685612/title/5/1-5?serpUid=&pt=1&ot=1&l=london&did=114_default&t_sec=9&t_or=45&t_pvid=null&utm_source=api&utm_medium=external","listing_type":"buy","location_accuracy":9,"longitude":-0.109724,"price":865000,"price_currency":"£","price_formatted":"£865,000","price_high":865000,"price_low":865000,"price_type":"fixed","property_type":"house","room_number":2,"size":0,"size_type":"net","summary":"A two bedroom maisonette with a private courtyard garden and car pa...","thumb_height":60,"thumb_url":"https://imgs.nestimg.com/medium/2_bedroom_maisonette_for_sale_in_levyne_court_pine_street_ec1r_london_7610072581426685612.jpg","thumb_width":80,"title":"Levyne Court, Pine Street, London EC1R","updated_in_days":1,"updated_in_days_formatted":"New"},{"bathroom_number":1,"bedroom_number":3,"car_spaces":"","commission":0,"construction_year":0,"datasource_name":"Findproperly","img_height":300,"img_url":"https://imgs.nestimg.com/3_bedroom_flat_for_sale_in_northampton_square_clerkenwell_ec1v_london_7670072581426685625.jpg","img_width":400,"keywords":"Garden, Fireplace, Double Bedroom, Kitchen, Reception","latitude":51.5269,"lister_url":"https://www.nestoria.co.uk/detail/0000007670072581426685625/title/5/1-6?serpUid=&pt=1&ot=1&l=london&did=114_default&t_sec=9&t_or=45&t_pvid=null&utm_source=api&utm_medium=external","listing_type":"buy","location_accuracy":9,"longitude":-0.102718,"price":875000,"price_currency":"£","price_formatted":"£875,000","price_high":875000,"price_low":875000,"price_type":"fixed","property_type":"flat","room_number":3,"size":0,"size_type":"net","summary":"Three bedroom period apartment situated on the highly sought after ...","thumb_height":60,"thumb_url":"https://imgs.nestimg.com/medium/3_bedroom_flat_for_sale_in_northampton_square_clerkenwell_ec1v_london_7670072581426685625.jpg","thumb_width":80,"title":"Northampton Square, Clerkenwell, London EC1V","updated_in_days":1,"updated_in_days_formatted":"New"},{"bathroom_number":4,"bedroom_number":3,"car_spaces":"","commission":0,"construction_year":0,"datasource_name":"Findproperly","img_height":300,"img_url":"https://imgs.nestimg.com/3_bedroom_flat_for_sale_in_basil_street_sw3_london_8060071581072670924.jpg","img_width":400,"keywords":"Share of Freehold, En suite, New Build, Balcony, Refurbished, Victorian, Double Bedroom, Kitchen, Lift, Porter, Reception","latitude":51.5001,"lister_url":"https://www.nestoria.co.uk/detail/0000008060071581072670924/title/5/1-7?serpUid=&pt=1&ot=1&l=london&did=114_default&t_sec=9&t_or=45&t_pvid=null&utm_source=api&utm_medium=external","listing_type":"buy","location_accuracy":9,"longitude":-0.160863,"price":12900000,"price_currency":"£","price_formatted":"£12,900,000","price_high":12900000,"price_low":12900000,"price_type":"fixed","property_type":"flat","room_number":3,"size":0,"size_type":"net","summary":"Outstanding brand newly developed three double bedrooms, four bathr...","thumb_height":60,"thumb_url":"https://imgs.nestimg.com/medium/3_bedroom_flat_for_sale_in_basil_street_sw3_london_8060071581072670924.jpg","thumb_width":80,"title":"Basil Street, London SW3 - Balcony","updated_in_days":1,"updated_in_days_formatted":"New"},{"bathroom_number":2,"bedroom_number":2,"car_spaces":"","commission":0,"construction_year":0,"datasource_name":"Findproperly","img_height":300,"img_url":"https://imgs.nestimg.com/2_bedroom_flat_for_sale_in_colnbrook_street_se1_london_112732512748382889.jpg","img_width":400,"keywords":"Shared Garden, Freehold, En suite, Maisonette, Conversion, Lower Ground, Raised Ground, Refurbished, Double Bedroom, Kitchen, Modern, Patio, Reception, Georgian","latitude":51.4966,"lister_url":"https://www.nestoria.co.uk/detail/0000000112732512748382889/title/5/1-8?serpUid=&pt=1&ot=1&l=london&did=114_default&t_sec=9&t_or=45&t_pvid=null&utm_source=api&utm_medium=external","listing_type":"buy","location_accuracy":9,"longitude":-0.105004,"price":875000,"price_currency":"£","price_formatted":"£875,000","price_high":875000,"price_low":875000,"price_type":"fixed","property_type":"flat","room_number":2,"size":0,"size_type":"net","summary":"Newly refurbished to a meticulous degree, this two double bedroom m...","thumb_height":60,"thumb_url":"https://imgs.nestimg.com/medium/2_bedroom_flat_for_sale_in_colnbrook_street_se1_london_112732512748382889.jpg","thumb_width":80,"title":"Colnbrook Street, London SE1 - Garden","updated_in_days":1,"updated_in_days_formatted":"New"},{"bathroom_number":1,"bedroom_number":2,"car_spaces":"","commission":0,"construction_year":0,"datasource_name":"Findproperly","img_height":300,"img_url":"https://imgs.nestimg.com/2_bedroom_maisonette_for_sale_in_albert_street_nw1_london_6860072581426523615.jpg","img_width":400,"keywords":"No Chain, Balcony, Conversion, High Ceilings, Refurbished, Wood Floor, Double Bedroom, Kitchen, Reception","latitude":51.5354,"lister_url":"https://www.nestoria.co.uk/detail/0000006860072581426523615/title/5/1-9?serpUid=&pt=1&ot=1&l=london&did=114_default&t_sec=9&t_or=45&t_pvid=null&utm_source=api&utm_medium=external","listing_type":"buy","location_accuracy":9,"longitude":-0.142914,"price":1150000,"price_currency":"£","price_formatted":"£1,150,000","price_high":1150000,"price_low":1150000,"price_type":"fixed","property_type":"house","room_number":2,"size":0,"size_type":"net","summary":"A ly refurbished split level apartment that is incredibly bright, o...","thumb_height":60,"thumb_url":"https://imgs.nestimg.com/medium/2_bedroom_maisonette_for_sale_in_albert_street_nw1_london_6860072581426523615.jpg","thumb_width":80,"title":"Albert Street, London NW1 - Balcony","updated_in_days":1,"updated_in_days_formatted":"New"},{"bathroom_number":2,"bedroom_number":2,"car_spaces":"","commission":0,"construction_year":0,"datasource_name":"Findproperly","img_height":300,"img_url":"https://imgs.nestimg.com/2_bedroom_flat_for_sale_in_city_road_ec1v_london_7630072581426685616.jpg","img_width":400,"keywords":"Furnished, Balcony, Gym, Kitchen, Porter, Swimming Pool","latitude":51.5277,"lister_url":"https://www.nestoria.co.uk/detail/0000007630072581426685616/title/5/1-10?serpUid=&pt=1&ot=1&l=london&did=114_default&t_sec=9&t_or=45&t_pvid=null&utm_source=api&utm_medium=external","listing_type":"buy","location_accuracy":9,"longitude":-0.0884,"price":1710000,"price_currency":"£","price_formatted":"£1,710,000","price_high":1710000,"price_low":1710000,"price_type":"fixed","property_type":"flat","room_number":2,"size":0,"size_type":"net","summary":"Oneof the final remaining units in the constellation collection at ...","thumb_height":60,"thumb_url":"https://imgs.nestimg.com/medium/2_bedroom_flat_for_sale_in_city_road_ec1v_london_7630072581426685616.jpg","thumb_width":80,"title":"City Road, London EC1V - Furnished","updated_in_days":1,"updated_in_days_formatted":"New"},{"bathroom_number":0,"bedroom_number":3,"car_spaces":"","commission":0,"construction_year":0,"datasource_name":"Findproperly","img_height":300,"img_url":"https://imgs.nestimg.com/3_bedroom_flat_for_sale_in_steam_mills_aldgate_e1_london_4750072581426631670.jpg","img_width":400,"keywords":"Share of Freehold, En suite, Conversion, High Ceilings, Double Bedroom, Kitchen, Loft, Parking, Reception","latitude":51.5131,"lister_url":"https://www.nestoria.co.uk/detail/0000004750072581426631670/title/5/1-11?serpUid=&pt=1&ot=1&l=london&did=114_default&t_sec=9&t_or=45&t_pvid=null&utm_source=api&utm_medium=external","listing_type":"buy","location_accuracy":9,"longitude":-0.065509,"price":900000,"price_currency":"£","price_formatted":"£900,000","price_high":900000,"price_low":900000,"price_type":"fixed","property_type":"flat","room_number":3,"size":0,"size_type":"net","summary":"A three bedroom, three bathroom loft apartment which is located on ...","thumb_height":60,"thumb_url":"https://imgs.nestimg.com/medium/3_bedroom_flat_for_sale_in_steam_mills_aldgate_e1_london_4750072581426631670.jpg","thumb_width":80,"title":"Steam Mills, Aldgate, London E1","updated_in_days":1,"updated_in_days_formatted":"New"},{"bathroom_number":1,"bedroom_number":3,"car_spaces":"","commission":0,"construction_year":0,"datasource_name":"Findproperly","img_height":300,"img_url":"https://imgs.nestimg.com/3_bedroom_flat_for_sale_in_caledonian_road_n1_london_5540072581426529209.jpg","img_width":400,"keywords":"Garden, Maisonette, New Build, Double Bedroom, Kitchen, Reception, Georgian","latitude":51.5378,"lister_url":"https://www.nestoria.co.uk/detail/0000005540072581426529209/title/5/1-12?serpUid=&pt=1&ot=1&l=london&did=114_default&t_sec=9&t_or=45&t_pvid=null&utm_source=api&utm_medium=external","listing_type":"buy","location_accuracy":9,"longitude":-0.116182,"price":1000000,"price_currency":"£","price_formatted":"£1,000,000","price_high":1000000,"price_low":1000000,"price_type":"fixed","property_type":"flat","room_number":3,"size":0,"size_type":"net","summary":"Occupying the ground, first and second floors of this georgian hous...","thumb_height":60,"thumb_url":"https://imgs.nestimg.com/medium/3_bedroom_flat_for_sale_in_caledonian_road_n1_london_5540072581426529209.jpg","thumb_width":80,"title":"Caledonian Road, London N1 - Georgian","updated_in_days":1,"updated_in_days_formatted":"New"},{"bathroom_number":1,"bedroom_number":2,"car_spaces":"","commission":0,"construction_year":0,"datasource_name":"Findproperly","img_height":300,"img_url":"https://imgs.nestimg.com/2_bedroom_flat_for_sale_in_carrara_tower_1_bollinder_place_ec1v_london_7660072581426685622.jpg","img_width":400,"keywords":"Garden, Gym, Double Bedroom, Kitchen, Porter, Swimming Pool","latitude":51.5286,"lister_url":"https://www.nestoria.co.uk/detail/0000007660072581426685622/title/5/1-13?serpUid=&pt=1&ot=1&l=london&did=114_default&t_sec=9&t_or=45&t_pvid=null&utm_source=api&utm_medium=external","listing_type":"buy","location_accuracy":9,"longitude":-0.094712,"price":1100000,"price_currency":"£","price_formatted":"£1,100,000","price_high":1100000,"price_low":1100000,"price_type":"fixed","property_type":"flat","room_number":2,"size":0,"size_type":"net","summary":"Two bedroom, one bathroom apartment in the brand new prestigious 25...","thumb_height":60,"thumb_url":"https://imgs.nestimg.com/medium/2_bedroom_flat_for_sale_in_carrara_tower_1_bollinder_place_ec1v_london_7660072581426685622.jpg","thumb_width":80,"title":"Carrara Tower, 1 Bollinder Place, London EC1V","updated_in_days":1,"updated_in_days_formatted":"New"},{"bathroom_number":1,"bedroom_number":1,"car_spaces":"","commission":0,"construction_year":0,"datasource_name":"Findproperly","img_height":300,"img_url":"https://imgs.nestimg.com/1_bedroom_flat_for_sale_in_craven_street_wc2n_london_113029176676405511.jpg","img_width":400,"keywords":"Grade II, No Chain, Balcony, Conversion, Wood Floor, Kitchen, Lift, Porter, Listed","latitude":51.507,"lister_url":"https://www.nestoria.co.uk/detail/0000000113029176676405511/title/5/1-14?serpUid=&pt=1&ot=1&l=london&did=114_default&t_sec=9&t_or=45&t_pvid=null&utm_source=api&utm_medium=external","listing_type":"buy","location_accuracy":9,"longitude":-0.123682,"price":950000,"price_currency":"£","price_formatted":"£950,000","price_high":950000,"price_low":950000,"price_type":"fixed","property_type":"flat","room_number":1,"size":0,"size_type":"net","summary":"This superb large one bedroom apartment is located in the sought af...","thumb_height":60,"thumb_url":"https://imgs.nestimg.com/medium/1_bedroom_flat_for_sale_in_craven_street_wc2n_london_113029176676405511.jpg","thumb_width":80,"title":"Craven Street, London WC2N - Balcony","updated_in_days":1,"updated_in_days_formatted":"New"},{"bathroom_number":2,"bedroom_number":3,"car_spaces":"","commission":0,"construction_year":0,"datasource_name":"Findproperly","img_height":300,"img_url":"https://imgs.nestimg.com/2_bedroom_flat_for_sale_in_chilton_street_city_pavillion_e2_london_7020072581426627552.jpg","img_width":400,"keywords":"En suite, Penthouse, Balcony, Wood Floor, Kitchen, Lift, Parking","latitude":51.5237,"lister_url":"https://www.nestoria.co.uk/detail/0000007020072581426627552/title/5/1-15?serpUid=&pt=1&ot=1&l=london&did=114_default&t_sec=9&t_or=45&t_pvid=null&utm_source=api&utm_medium=external","listing_type":"buy","location_accuracy":9,"longitude":-0.069654,"price":1237995,"price_currency":"£","price_formatted":"£1,237,995","price_high":1237995,"price_low":1237995,"price_type":"fixed","property_type":"flat","room_number":2,"size":0,"size_type":"net","summary":"Set on a quiet side street, moments from brick lane, shoreditch and...","thumb_height":60,"thumb_url":"https://imgs.nestimg.com/medium/2_bedroom_flat_for_sale_in_chilton_street_city_pavillion_e2_london_7020072581426627552.jpg","thumb_width":80,"title":"Chilton Street, City Pavillion, London E2","updated_in_days":1,"updated_in_days_formatted":"New"},{"bathroom_number":1,"bedroom_number":1,"car_spaces":"","commission":0,"construction_year":0,"datasource_name":"Findproperly","img_height":300,"img_url":"https://imgs.nestimg.com/1_bedroom_flat_for_sale_in_britannia_street_kings_cross_wc1x_london_5830072581426687218.jpg","img_width":400,"keywords":"Grade II, Double Bedroom, Kitchen, Reception, Listed","latitude":51.5301,"lister_url":"https://www.nestoria.co.uk/detail/0000005830072581426687218/title/5/1-16?serpUid=&pt=1&ot=1&l=london&did=114_default&t_sec=9&t_or=45&t_pvid=null&utm_source=api&utm_medium=external","listing_type":"buy","location_accuracy":9,"longitude":-0.117395,"price":400000,"price_currency":"£","price_formatted":"£400,000","price_high":400000,"price_low":400000,"price_type":"fixed","property_type":"flat","room_number":1,"size":0,"size_type":"net","summary":"A 1 double bedroom apartment set on the third floor of this small g...","thumb_height":60,"thumb_url":"https://imgs.nestimg.com/medium/1_bedroom_flat_for_sale_in_britannia_street_kings_cross_wc1x_london_5830072581426687218.jpg","thumb_width":80,"title":"Britannia Street, Kings Cross, London WC1X","updated_in_days":1,"updated_in_days_formatted":"New"},{"bathroom_number":0,"bedroom_number":5,"car_spaces":"","commission":0,"construction_year":0,"datasource_name":"Findproperly","img_height":300,"img_url":"https://imgs.nestimg.com/3_bedroom_flat_for_sale_in_red_lion_square_bloomsbury_wc1r_london_2140071581245344599.jpg","img_width":400,"keywords":"En suite, Double Bedroom, Kitchen, Lift, Modern","latitude":51.5188,"lister_url":"https://www.nestoria.co.uk/detail/0000002140071581245344599/title/5/1-17?serpUid=&pt=1&ot=1&l=london&did=114_default&t_sec=9&t_or=45&t_pvid=null&utm_source=api&utm_medium=external","listing_type":"buy","location_accuracy":9,"longitude":-0.119104,"price":1595000,"price_currency":"£","price_formatted":"£1,595,000","price_high":1595000,"price_low":1595000,"price_type":"fixed","property_type":"flat","room_number":3,"size":0,"size_type":"net","summary":"Located in red lion square is this modern, three double bedroom, fi...","thumb_height":60,"thumb_url":"https://imgs.nestimg.com/medium/3_bedroom_flat_for_sale_in_red_lion_square_bloomsbury_wc1r_london_2140071581245344599.jpg","thumb_width":80,"title":"Red Lion Square, Bloomsbury, London WC1R","updated_in_days":1,"updated_in_days_formatted":"New"},{"bathroom_number":0,"bedroom_number":4,"car_spaces":"","commission":0,"construction_year":0,"datasource_name":"Findproperly","img_height":300,"img_url":"https://imgs.nestimg.com/4_bedroom_flat_for_sale_in_westbourne_terrace_paddington_w2_london_2810072581426686502.jpg","img_width":400,"keywords":"En suite, Grade II, Balcony, Fireplace, Victorian, Double Bedroom, Kitchen, Off Street Parking, Reception, Listed","latitude":51.5148,"lister_url":"https://www.nestoria.co.uk/detail/0000002810072581426686502/title/5/1-18?serpUid=&pt=1&ot=1&l=london&did=114_default&t_sec=9&t_or=45&t_pvid=null&utm_source=api&utm_medium=external","listing_type":"buy","location_accuracy":9,"longitude":-0.178937,"price":4995000,"price_currency":"£","price_formatted":"£4,995,000","price_high":4995000,"price_low":4995000,"price_type":"fixed","property_type":"flat","room_number":4,"size":0,"size_type":"net","summary":"An astounding 4 bedroom apartment in paddington w2, located on the ...","thumb_height":60,"thumb_url":"https://imgs.nestimg.com/medium/4_bedroom_flat_for_sale_in_westbourne_terrace_paddington_w2_london_2810072581426686502.jpg","thumb_width":80,"title":"Westbourne Terrace, Paddington, London W2","updated_in_days":1,"updated_in_days_formatted":"New"},{"bathroom_number":2,"bedroom_number":2,"car_spaces":"","commission":0,"construction_year":0,"datasource_name":"Findproperly","img_height":300,"img_url":"https://imgs.nestimg.com/2_bedroom_flat_for_sale_in_city_road_ec1v_london_7620072581426685614.jpg","img_width":400,"keywords":"Furnished, Balcony, Gym, Kitchen, Porter, Swimming Pool","latitude":51.5277,"lister_url":"https://www.nestoria.co.uk/detail/0000007620072581426685614/title/5/1-19?serpUid=&pt=1&ot=1&l=london&did=114_default&t_sec=9&t_or=45&t_pvid=null&utm_source=api&utm_medium=external","listing_type":"buy","location_accuracy":9,"longitude":-0.0884,"price":1831000,"price_currency":"£","price_formatted":"£1,831,000","price_high":1831000,"price_low":1831000,"price_type":"fixed","property_type":"flat","room_number":2,"size":0,"size_type":"net","summary":"Oneof the final remaining units in the constellation collection at ...","thumb_height":60,"thumb_url":"https://imgs.nestimg.com/medium/2_bedroom_flat_for_sale_in_city_road_ec1v_london_7620072581426685614.jpg","thumb_width":80,"title":"City Road, London EC1V - Balcony, Gym","updated_in_days":1,"updated_in_days_formatted":"New"},{"bathroom_number":1,"bedroom_number":1,"car_spaces":"","commission":0,"construction_year":0,"datasource_name":"Findproperly","img_height":300,"img_url":"https://imgs.nestimg.com/1_bedroom_flat_for_sale_in_8_casson_square_southbank_place_southbank_se1_london_3750072581426684529.jpg","img_width":400,"keywords":"Garden, New Build, Balcony, Gym, Porter, Swimming Pool, Basement, Modern, Parking","latitude":51.498,"lister_url":"https://www.nestoria.co.uk/detail/0000003750072581426684529/title/5/1-20?serpUid=&pt=1&ot=1&l=london&did=114_default&t_sec=9&t_or=45&t_pvid=null&utm_source=api&utm_medium=external","listing_type":"buy","location_accuracy":9,"longitude":-0.114413,"price":860000,"price_currency":"£","price_formatted":"£860,000","price_high":860000,"price_low":860000,"price_type":"fixed","property_type":"flat","room_number":1,"size":0,"size_type":"net","summary":"This new development offers modern off-plan one bedroom apartment w...","thumb_height":60,"thumb_url":"https://imgs.nestimg.com/medium/1_bedroom_flat_for_sale_in_8_casson_square_southbank_place_southbank_se1_london_3750072581426684529.jpg","thumb_width":80,"title":"8 Casson Square, Southbank Place, Southbank, London SE1","updated_in_days":1,"updated_in_days_formatted":"New"}],"locations":[{"center_lat":51.527243,"center_long":-0.106841,"long_title":"London","place_name":"london","title":"London"}],"page":1,"sort":"nestoria_rank","status_code":"200","status_text":"OK","thanks":"For using the Nestoria API.","total_pages":2865,"total_results":57289,"_cu5t0mP434m_":"remove"}
